risc_sim.vcd
$date
	Fri Jun 19 18:37:20 2026
$end
$version
	Icarus Verilog
$end
$timescale
	1s
$end
$scope module tb_risc_processor $end
$var wire 1 ! halt $end
$var wire 32 " dout [31:0] $end
$var reg 1 # clk1 $end
$var reg 1 $ clk2 $end
$var reg 32 % din [31:0] $end
$var reg 1 & rst $end
$var integer 32 ' i [31:0] $end
$scope module uut $end
$var wire 1 ( EX_reg_write_en $end
$var wire 1 ) branch_taken $end
$var wire 32 * branch_target [31:0] $end
$var wire 1 # clk1 $end
$var wire 1 $ clk2 $end
$var wire 32 + din [31:0] $end
$var wire 1 & rst $end
$var wire 1 , stall_F $end
$var wire 1 - stall_D $end
$var wire 2 . forward_rdes [1:0] $end
$var wire 2 / forward_B [1:0] $end
$var wire 2 0 forward_A [1:0] $end
$var wire 1 1 flush_E $end
$var wire 1 2 flush_D $end
$var wire 32 3 PC_val [31:0] $end
$var wire 1 4 MEM_write_en $end
$var wire 32 5 MEM_read_data [31:0] $end
$var wire 32 6 IF_IR [31:0] $end
$var wire 32 7 ID_sign_ext_imm [31:0] $end
$var wire 5 8 ID_rsrc2 [4:0] $end
$var wire 5 9 ID_rsrc1 [4:0] $end
$var wire 32 : ID_rdes_val [31:0] $end
$var wire 5 ; ID_rdes [4:0] $end
$var wire 5 < ID_opcode [4:0] $end
$var wire 32 = ID_op2_val [31:0] $end
$var wire 32 > ID_op1_val [31:0] $end
$var wire 1 ? ID_imm_mode $end
$var wire 16 @ ID_imm [15:0] $end
$var wire 1 A EX_flags_en $end
$var wire 32 B EX_alu_out [31:0] $end
$var wire 4 C EX_alu_flags [3:0] $end
$var reg 32 D EX_MEM_ALUOut [31:0] $end
$var reg 32 E EX_MEM_IR [31:0] $end
$var reg 5 F EX_MEM_opcode [4:0] $end
$var reg 5 G EX_MEM_rdes [4:0] $end
$var reg 32 H EX_MEM_rdes_val [31:0] $end
$var reg 1 I EX_MEM_reg_write_en $end
$var reg 1 ) EX_branch_taken $end
$var reg 32 J EX_forwarded_op1 [31:0] $end
$var reg 32 K EX_forwarded_op2 [31:0] $end
$var reg 32 L EX_forwarded_rdes_val [31:0] $end
$var reg 32 M ID_EX_IR [31:0] $end
$var reg 1 N ID_EX_imm_mode $end
$var reg 32 O ID_EX_op1 [31:0] $end
$var reg 32 P ID_EX_op2 [31:0] $end
$var reg 5 Q ID_EX_opcode [4:0] $end
$var reg 5 R ID_EX_rdes [4:0] $end
$var reg 32 S ID_EX_rdes_val [31:0] $end
$var reg 5 T ID_EX_rsrc1 [4:0] $end
$var reg 5 U ID_EX_rsrc2 [4:0] $end
$var reg 32 V IF_ID_IR [31:0] $end
$var reg 32 W MEM_WB_ALUOut [31:0] $end
$var reg 32 X MEM_WB_IR [31:0] $end
$var reg 32 Y MEM_WB_LMD [31:0] $end
$var reg 5 Z MEM_WB_opcode [4:0] $end
$var reg 5 [ MEM_WB_rdes [4:0] $end
$var reg 1 \ MEM_WB_reg_write_en $end
$var reg 32 ] dout [31:0] $end
$var reg 4 ^ flags [3:0] $end
$var reg 1 ! halt $end
$var reg 32 _ reg_write_data [31:0] $end
$scope module decode_inst $end
$var wire 1 # clk1 $end
$var wire 32 ` op1_val [31:0] $end
$var wire 32 a op2_val [31:0] $end
$var wire 5 b rdes [4:0] $end
$var wire 5 c rdes_in [4:0] $end
$var wire 32 d rdes_val [31:0] $end
$var wire 32 e reg_write_data [31:0] $end
$var wire 1 \ reg_write_en $end
$var wire 5 f rsrc1 [4:0] $end
$var wire 5 g rsrc2 [4:0] $end
$var wire 1 & rst $end
$var integer 32 h idx [31:0] $end
$upscope $end
$scope module execute_inst $end
$var wire 1 i add_overflow $end
$var wire 4 j flags_in [3:0] $end
$var wire 32 k op1 [31:0] $end
$var wire 32 l op2 [31:0] $end
$var wire 5 m opcode [4:0] $end
$var wire 1 n sub_overflow $end
$var wire 33 o sub_res [32:0] $end
$var wire 1 p sub_borrow $end
$var wire 33 q add_res [32:0] $end
$var wire 1 r add_carry $end
$var reg 4 s alu_flags [3:0] $end
$var reg 32 t alu_out [31:0] $end
$var reg 1 A flags_en $end
$upscope $end
$scope module fetch_inst $end
$var wire 32 u IR [31:0] $end
$var wire 1 ) branch_taken $end
$var wire 32 v branch_target [31:0] $end
$var wire 1 # clk1 $end
$var wire 1 & rst $end
$var wire 1 w stall_F $end
$var wire 32 x PC_next [31:0] $end
$var reg 32 y PC [31:0] $end
$var integer 32 z idx [31:0] $end
$upscope $end
$scope module hazard_inst $end
$var wire 5 { EX_MEM_rdes [4:0] $end
$var wire 1 I EX_MEM_reg_write_en $end
$var wire 1 N ID_EX_imm_mode $end
$var wire 5 | ID_EX_opcode [4:0] $end
$var wire 5 } ID_EX_rdes [4:0] $end
$var wire 5 ~ ID_EX_rsrc1 [4:0] $end
$var wire 5 !" ID_EX_rsrc2 [4:0] $end
$var wire 1 ? IF_ID_imm_mode $end
$var wire 5 "" IF_ID_opcode [4:0] $end
$var wire 5 #" IF_ID_rdes [4:0] $end
$var wire 5 $" IF_ID_rsrc1 [4:0] $end
$var wire 5 %" IF_ID_rsrc2 [4:0] $end
$var wire 5 &" MEM_WB_rdes [4:0] $end
$var wire 1 \ MEM_WB_reg_write_en $end
$var wire 1 ) branch_taken $end
$var wire 1 '" load_use_hazard $end
$var reg 1 2 flush_D $end
$var reg 1 1 flush_E $end
$var reg 2 (" forward_A [1:0] $end
$var reg 2 )" forward_B [1:0] $end
$var reg 2 *" forward_rdes [1:0] $end
$var reg 1 - stall_D $end
$var reg 1 , stall_F $end
$upscope $end
$scope module memory_inst $end
$var wire 1 $ clk2 $end
$var wire 32 +" mem_addr [31:0] $end
$var wire 32 ," mem_read_data [31:0] $end
$var wire 32 -" mem_write_data [31:0] $end
$var wire 1 4 mem_write_en $end
$var wire 1 & rst $end
$var integer 32 ." idx [31:0] $end
$upscope $end
$upscope $end
$upscope $end
$enddefinitions $end
#0
$dumpvars
b1000000 ."
bx -"
bx ,"
bx +"
bx *"
bx )"
bx ("
x'"
bx &"
bx %"
bx $"
bx #"
bx ""
bx !"
bx ~
bx }
bx |
bx {
b1000000 z
bx y
bx x
xw
bx v
bx u
bx t
bx s
xr
bx q
xp
bx o
xn
bx m
bx l
bx k
bx j
xi
b100000 h
bx g
bx f
bx e
bx d
bx c
bx b
bx a
bx `
bx _
bx ^
bx ]
x\
bx [
bx Z
bx Y
bx X
bx W
bx V
bx U
bx T
bx S
bx R
bx Q
bx P
bx O
xN
bx M
bx L
bx K
bx J
xI
bx H
bx G
bx F
bx E
bx D
bx C
bx B
xA
bx @
x?
bx >
bx =
bx <
bx ;
bx :
bx 9
bx 8
bx 7
bx 6
bx 5
x4
bx 3
x2
x1
bx 0
bx /
bx .
x-
x,
b0 +
bx *
x)
x(
b1000000 '
1&
b0 %
0$
0#
bx "
x!
$end
#2
0(
0i
0n
0w
0r
0'"
01
02
0-
0,
b10000010000000000000011 6
b10000010000000000000011 u
b1 x
b11010 <
b11010 ""
b0 :
b0 d
b0 ;
b0 b
b0 #"
b0 >
b0 `
b0 9
b0 f
b0 $"
0?
b0 =
b0 a
b0 8
b0 g
b0 %"
b0 7
b0 @
b0 5
b0 ,"
b0 L
b0 q
b0 o
0p
b0 J
b0 k
b0 *
b0 v
b0 K
b0 l
0A
b0 C
b0 s
b0 B
b0 t
0)
b0 .
b0 *"
b0 /
b0 )"
b0 0
b0 ("
b0 _
b0 e
b0 3
b0 y
b11010000000000000000000000000000 V
0I
b0 H
b0 -"
b0 D
b0 +"
b0 G
b0 {
04
b11010 F
b11010000000000000000000000000000 E
b0 "
b0 ]
0!
b0 S
b0 P
b0 O
0N
b0 U
b0 !"
b0 T
b0 ~
b0 R
b0 }
b11010 Q
b11010 m
b11010 |
b11010000000000000000000000000000 M
0\
b0 Y
b0 W
b0 [
b0 c
b0 &"
b11010 Z
b11010000000000000000000000000000 X
#5
b100000 h
1#
#10
0#
#15
1$
#17
0&
#20
0$
#25
1#
#27
b100000010000000000000100 6
b100000010000000000000100 u
b10 x
b0 <
b0 ""
b1 ;
b1 b
b1 #"
1?
b11 7
b11 @
b1 3
b1 y
b10000010000000000000011 V
#30
0#
#35
1$
#37
1(
b11 B
b11 t
b11 q
b111111111111111111111111111111101 o
1p
b11 *
b11 v
b11 K
b11 l
1A
bx00x C
bx00x s
b11 P
1N
b1 R
b1 }
b0 Q
b0 m
b0 |
b10000010000000000000011 M
#40
0$
#45
1#
#47
1A
bx00x C
bx00x s
b11 B
b11 t
b11 L
b10 .
b10 *"
b10 ;
b10 b
b10 #"
b100 7
b100 @
b1000110000100001000000000000 6
b1000110000100001000000000000 u
b11 x
bx00x ^
bx00x j
1I
b11 D
b11 +"
b1 G
b1 {
b0 F
b10000010000000000000011 E
b100000010000000000000100 V
b10 3
b10 y
#50
0#
#55
1$
#57
1A
bx00x C
bx00x s
b100 B
b100 t
b0 L
b11 _
b11 e
b100 q
b111111111111111111111111111111100 o
b100 *
b100 v
b100 K
b100 l
b0 .
b0 *"
1\
b11 W
b1 [
b1 c
b1 &"
b0 Z
b10000010000000000000011 X
b100 P
b10 R
b10 }
b100000010000000000000100 M
#60
0$
#65
1#
#67
b11011000000000010000000000000000 6
b11011000000000010000000000000000 u
b100 x
b1 <
b1 ""
b11 ;
b11 b
b11 #"
b11 >
b11 `
b1 9
b1 f
b1 $"
0?
b10 8
b10 g
b10 %"
b1000000000000 7
b1000000000000 @
b100 L
b10 .
b10 *"
b11 3
b11 y
b1000110000100001000000000000 V
b100 D
b100 +"
b10 G
b10 {
b100000010000000000000100 E
#70
0#
#75
1$
#77
b0 L
b111 q
b111111111111111111111111111111111 o
b11 J
b11 k
1A
b0 C
b0 s
b111 B
b111 t
b100 _
b100 e
b0 .
b0 *"
b10 /
b10 )"
b0 P
b11 O
0N
b10 U
b10 !"
b1 T
b1 ~
b11 R
b11 }
b1 Q
b1 m
b1 |
b1000110000100001000000000000 M
b100 W
b10 [
b10 c
b10 &"
b100000010000000000000100 X
#80
0$
#85
1#
#87
1A
b111 B
b111 t
b111 L
b10 .
b10 *"
b1 /
b1 )"
b11011 <
b11011 ""
b0 ;
b0 b
b0 #"
b0 >
b0 `
b0 9
b0 f
b0 $"
1?
b0 8
b0 g
b0 %"
b0 7
b0 @
b11010000000000000000000000000000 6
b11010000000000000000000000000000 u
b101 x
b0 ^
b0 j
b111 D
b111 +"
b11 G
b11 {
b1 F
b1000110000100001000000000000 E
b11011000000000010000000000000000 V
b0 =
b0 a
b100 3
b100 y
#90
0#
#95
1$
#97
0(
b0 L
b111 _
b111 e
b0 J
b0 k
b0 q
b0 o
0p
b0 *
b0 v
b0 K
b0 l
b0 .
b0 *"
b0 /
b0 )"
0A
b0 B
b0 t
b111 W
b11 [
b11 c
b11 &"
b1 Z
b1000110000100001000000000000 X
b0 O
1N
b0 U
b0 !"
b0 T
b0 ~
b0 R
b0 }
b11011 Q
b11011 m
b11011 |
b11011000000000010000000000000000 M
#100
0$
#105
1#
#107
b110 x
b11010 <
b11010 ""
0?
b101 3
b101 y
b11010000000000000000000000000000 V
0I
b0 D
b0 +"
b0 G
b0 {
b11011 F
b11011000000000010000000000000000 E
#110
0#
#115
1$
#117
b0 _
b0 e
0N
b11010 Q
b11010 m
b11010 |
b11010000000000000000000000000000 M
0\
b0 W
b0 [
b0 c
b0 &"
b11011 Z
b11011000000000010000000000000000 X
#120
0$
#125
1#
#127
1w
b111 x
1!
b11010 F
b11010000000000000000000000000000 E
b110 3
b110 y
#130
0#
#135
1$
#137
b11010 Z
b11010000000000000000000000000000 X
#140
0$
#145
1#
#150
0#
#155
1$
#160
0$
#165
1#
#168
b100000 h
1&
b1111001000000010000000000001111 6
b1111001000000010000000000001111 u
b1000000 '
#170
b100000010000000000000001 6
b100000010000000000000001 u
b1 x
0w
b0 3
b0 y
0!
0#
#175
1$
#180
0$
#185
1#
0&
#187
b0 <
b0 ""
b10 ;
b10 b
b10 #"
1?
b1 7
b1 @
b10000010000000000000101 6
b10000010000000000000101 u
b10 x
b100000010000000000000001 V
b1 3
b1 y
#190
0#
#195
1$
#197
1(
b1 B
b1 t
b1 q
b111111111111111111111111111111111 o
1p
b1 *
b1 v
b1 K
b1 l
1A
b0 C
b0 s
b1 P
1N
b10 R
b10 }
b0 Q
b0 m
b0 |
b100000010000000000000001 M
#200
0$
#205
1#
#207
b11000100001000000100000000000 6
b11000100001000000100000000000 u
b11 x
b1 ;
b1 b
b1 #"
b101 7
b101 @
b1 L
b10 .
b10 *"
b10 3
b10 y
b10000010000000000000101 V
1I
b1 D
b1 +"
b10 G
b10 {
b0 F
b100000010000000000000001 E
#210
0#
#215
1$
#217
1A
b101 B
b101 t
b0 L
b101 q
b111111111111111111111111111111011 o
b101 *
b101 v
b101 K
b101 l
b0 .
b0 *"
b1 _
b1 e
b101 P
b1 R
b1 }
b10000010000000000000101 M
1\
b1 W
b10 [
b10 c
b10 &"
b0 Z
b100000010000000000000001 X
#220
0$
#225
1#
#227
b101 L
b10 .
b10 *"
b11 <
b11 ""
b1 :
b1 d
b10 ;
b10 b
b10 #"
b1 >
b1 `
b10 9
b10 f
b10 $"
0?
b1 8
b1 g
b1 %"
b100000000000 7
b100000000000 @
b10000010000110000000000000001 6
b10000010000110000000000000001 u
b100 x
b101 D
b101 +"
b1 G
b1 {
b10000010000000000000101 E
b11000100001000000100000000000 V
b11 3
b11 y
#230
0#
#235
1$
#237
b101 _
b101 e
b1 L
b110 q
b111111111111111111111111111111100 o
b1 J
b1 k
b0 .
b0 *"
b10 /
b10 )"
b0 C
b0 s
1A
b101 B
b101 t
b101 W
b1 [
b1 c
b1 &"
b10000010000000000000101 X
b1 S
b0 P
b1 O
0N
b1 U
b1 !"
b10 T
b10 ~
b10 R
b10 }
b11 Q
b11 m
b11 |
b11000100001000000100000000000 M
#240
0$
#245
1#
#247
1A
b11001 B
b11001 t
b101 L
b1010 q
b0 o
0p
b101 J
b101 k
b10110000000000010000000000000010 6
b10110000000000010000000000000010 u
b101 x
b10 <
b10 ""
b101 :
b101 d
b1 ;
b1 b
b1 #"
b101 >
b101 `
b1 9
b1 f
b1 $"
1?
b0 8
b0 g
b0 %"
b1 7
b1 @
b10 .
b10 *"
b1 /
b1 )"
b10 0
b10 ("
b100 3
b100 y
b0 =
b0 a
b10000010000110000000000000001 V
b1 H
b1 -"
b10 G
b10 {
b11 F
b11000100001000000100000000000 E
#250
0#
#255
1$
#257
1(
b110 q
b100 o
b1 *
b1 v
b1 K
b1 l
b0 C
b0 s
1A
b100 B
b100 t
b0 .
b0 *"
b0 /
b0 )"
b0 0
b0 ("
b101 S
b1 P
b101 O
1N
b0 U
b0 !"
b1 T
b1 ~
b1 R
b1 }
b10 Q
b10 m
b10 |
b10000010000110000000000000001 M
b10 [
b10 c
b10 &"
b11 Z
b11000100001000000100000000000 X
#260
0$
#265
1#
#267
1A
b11 B
b11 t
b101 q
b11 o
b100 J
b100 k
b100 L
b10 .
b10 *"
b10 0
b10 ("
b10110 <
b10110 ""
b0 :
b0 d
b0 ;
b0 b
b0 #"
b0 >
b0 `
b0 9
b0 f
b0 $"
b10 7
b10 @
b1100000100000010000000000001111 6
b1100000100000010000000000001111 u
b110 x
b101 H
b101 -"
b100 D
b100 +"
b1 G
b1 {
b10 F
b10000010000110000000000000001 E
b10110000000000010000000000000010 V
b101 3
b101 y
#270
0#
#275
1$
#277
0(
b10 x
12
b100 _
b100 e
b0 L
b10 *
b10 v
b10 K
b10 l
b10 q
b111111111111111111111111111111110 o
1p
b0 J
b0 k
b0 .
b0 *"
b0 0
b0 ("
0A
b0 B
b0 t
1)
b100 W
b1 [
b1 c
b1 &"
b10 Z
b10000010000110000000000000001 X
b0 S
b10 P
b0 O
b0 T
b0 ~
b0 R
b0 }
b10110 Q
b10110 m
b10110 |
b10110000000000010000000000000010 M
#280
0$
#285
1#
#287
b11000100001000000100000000000 6
b11000100001000000100000000000 u
b11010 <
b11010 ""
0?
b0 7
b0 @
b10 3
b10 y
b11010000000000000000000000000000 V
0I
b0 H
b0 -"
b0 D
b0 +"
b0 G
b0 {
b10110 F
b10110000000000010000000000000010 E
#290
0#
#295
1$
#297
b11 x
02
b0 q
b0 o
0p
b0 *
b0 v
b0 K
b0 l
0)
b0 _
b0 e
b0 P
0N
b11010 Q
b11010 m
b11010 |
b11010000000000000000000000000000 M
0\
b0 W
b0 [
b0 c
b0 &"
b10110 Z
b10110000000000010000000000000010 X
#300
0$
#305
1#
#307
b11 <
b11 ""
b101 :
b101 d
b10 ;
b10 b
b10 #"
b101 >
b101 `
b10 9
b10 f
b10 $"
b100 =
b100 a
b1 8
b1 g
b1 %"
b100000000000 7
b100000000000 @
b10000010000110000000000000001 6
b10000010000110000000000000001 u
b100 x
b11010 F
b11010000000000000000000000000000 E
b11000100001000000100000000000 V
b11 3
b11 y
#310
0#
#315
1$
#317
1(
b10100 B
b10100 t
b101 L
b100 *
b100 v
b100 K
b100 l
b1001 q
b1 o
b101 J
b101 k
1A
b0 C
b0 s
b11010 Z
b11010000000000000000000000000000 X
b101 S
b100 P
b101 O
b1 U
b1 !"
b10 T
b10 ~
b10 R
b10 }
b11 Q
b11 m
b11 |
b11000100001000000100000000000 M
#320
0$
#325
1#
#327
1A
b1010000 B
b1010000 t
b10110000000000010000000000000010 6
b10110000000000010000000000000010 u
b101 x
b10 <
b10 ""
b100 :
b100 d
b1 ;
b1 b
b1 #"
b100 >
b100 `
b1 9
b1 f
b1 $"
1?
b0 =
b0 a
b0 8
b0 g
b0 %"
b1 7
b1 @
b11000 q
b10000 o
b10100 J
b10100 k
b10100 L
b10 .
b10 *"
b10 0
b10 ("
b100 3
b100 y
b10000010000110000000000000001 V
1I
b101 H
b101 -"
b10100 D
b10100 +"
b10 G
b10 {
b11 F
b11000100001000000100000000000 E
#330
0#
#335
1$
#337
1(
b100 L
b100 J
b100 k
b101 q
b11 o
b1 *
b1 v
b1 K
b1 l
1A
b11 B
b11 t
b0 .
b0 *"
b0 0
b0 ("
b10100 _
b10100 e
b100 S
b1 P
b100 O
1N
b0 U
b0 !"
b1 T
b1 ~
b1 R
b1 }
b10 Q
b10 m
b10 |
b10000010000110000000000000001 M
1\
b10100 W
b10 [
b10 c
b10 &"
b11 Z
b11000100001000000100000000000 X
#340
0$
#345
1#
#347
1A
b10 B
b10 t
b100 q
b10 o
b11 J
b11 k
b11 L
b10 .
b10 *"
b10 0
b10 ("
b10110 <
b10110 ""
b0 :
b0 d
b0 ;
b0 b
b0 #"
b0 >
b0 `
b0 9
b0 f
b0 $"
b10 7
b10 @
b1100000100000010000000000001111 6
b1100000100000010000000000001111 u
b110 x
b100 H
b100 -"
b11 D
b11 +"
b1 G
b1 {
b10 F
b10000010000110000000000000001 E
b10110000000000010000000000000010 V
b101 3
b101 y
#350
0#
#355
1$
#357
0(
b10 x
12
b11 _
b11 e
b0 L
b10 *
b10 v
b10 K
b10 l
b10 q
b111111111111111111111111111111110 o
1p
b0 J
b0 k
b0 .
b0 *"
b0 0
b0 ("
0A
b0 B
b0 t
1)
b11 W
b1 [
b1 c
b1 &"
b10 Z
b10000010000110000000000000001 X
b0 S
b10 P
b0 O
b0 T
b0 ~
b0 R
b0 }
b10110 Q
b10110 m
b10110 |
b10110000000000010000000000000010 M
#360
0$
#365
1#
#367
b11000100001000000100000000000 6
b11000100001000000100000000000 u
b11010 <
b11010 ""
0?
b0 7
b0 @
b10 3
b10 y
b11010000000000000000000000000000 V
0I
b0 H
b0 -"
b0 D
b0 +"
b0 G
b0 {
b10110 F
b10110000000000010000000000000010 E
#370
0#
#375
1$
#377
b11 x
02
b0 q
b0 o
0p
b0 *
b0 v
b0 K
b0 l
0)
b0 _
b0 e
b0 P
0N
b11010 Q
b11010 m
b11010 |
b11010000000000000000000000000000 M
0\
b0 W
b0 [
b0 c
b0 &"
b10110 Z
b10110000000000010000000000000010 X
#380
0$
#385
1#
#387
b11 <
b11 ""
b10100 :
b10100 d
b10 ;
b10 b
b10 #"
b10100 >
b10100 `
b10 9
b10 f
b10 $"
b11 =
b11 a
b1 8
b1 g
b1 %"
b100000000000 7
b100000000000 @
b10000010000110000000000000001 6
b10000010000110000000000000001 u
b100 x
b11010 F
b11010000000000000000000000000000 E
b11000100001000000100000000000 V
b11 3
b11 y
#390
0#
#395
1$
#397
1(
b111100 B
b111100 t
b10100 L
b11 *
b11 v
b11 K
b11 l
b10111 q
b10001 o
b10100 J
b10100 k
1A
b0 C
b0 s
b11010 Z
b11010000000000000000000000000000 X
b10100 S
b11 P
b10100 O
b1 U
b1 !"
b10 T
b10 ~
b10 R
b10 }
b11 Q
b11 m
b11 |
b11000100001000000100000000000 M
#400
0$
#405
1#
#407
1A
b10110100 B
b10110100 t
b10110000000000010000000000000010 6
b10110000000000010000000000000010 u
b101 x
b10 <
b10 ""
b11 :
b11 d
b1 ;
b1 b
b1 #"
b11 >
b11 `
b1 9
b1 f
b1 $"
1?
b0 =
b0 a
b0 8
b0 g
b0 %"
b1 7
b1 @
b111111 q
b111001 o
b111100 J
b111100 k
b111100 L
b10 .
b10 *"
b10 0
b10 ("
b100 3
b100 y
b10000010000110000000000000001 V
1I
b10100 H
b10100 -"
b111100 D
b111100 +"
b10 G
b10 {
b11 F
b11000100001000000100000000000 E
#410
0#
#415
1$
#417
1(
b11 L
b11 J
b11 k
b100 q
b10 o
b1 *
b1 v
b1 K
b1 l
1A
b10 B
b10 t
b0 .
b0 *"
b0 0
b0 ("
b111100 _
b111100 e
b11 S
b1 P
b11 O
1N
b0 U
b0 !"
b1 T
b1 ~
b1 R
b1 }
b10 Q
b10 m
b10 |
b10000010000110000000000000001 M
1\
b111100 W
b10 [
b10 c
b10 &"
b11 Z
b11000100001000000100000000000 X
#420
0$
#425
1#
#427
1A
b1 B
b1 t
b11 q
b1 o
b10 J
b10 k
b10 L
b10 .
b10 *"
b10 0
b10 ("
b10110 <
b10110 ""
b0 :
b0 d
b0 ;
b0 b
b0 #"
b0 >
b0 `
b0 9
b0 f
b0 $"
b10 7
b10 @
b1100000100000010000000000001111 6
b1100000100000010000000000001111 u
b110 x
b11 H
b11 -"
b10 D
b10 +"
b1 G
b1 {
b10 F
b10000010000110000000000000001 E
b10110000000000010000000000000010 V
b101 3
b101 y
#430
0#
#435
1$
#437
0(
b10 x
12
b10 _
b10 e
b0 L
b10 *
b10 v
b10 K
b10 l
b10 q
b111111111111111111111111111111110 o
1p
b0 J
b0 k
b0 .
b0 *"
b0 0
b0 ("
0A
b0 B
b0 t
1)
b10 W
b1 [
b1 c
b1 &"
b10 Z
b10000010000110000000000000001 X
b0 S
b10 P
b0 O
b0 T
b0 ~
b0 R
b0 }
b10110 Q
b10110 m
b10110 |
b10110000000000010000000000000010 M
#440
0$
#445
1#
#447
b11000100001000000100000000000 6
b11000100001000000100000000000 u
b11010 <
b11010 ""
0?
b0 7
b0 @
b10 3
b10 y
b11010000000000000000000000000000 V
0I
b0 H
b0 -"
b0 D
b0 +"
b0 G
b0 {
b10110 F
b10110000000000010000000000000010 E
#450
0#
#455
1$
#457
b11 x
02
b0 q
b0 o
0p
b0 *
b0 v
b0 K
b0 l
0)
b0 _
b0 e
b0 P
0N
b11010 Q
b11010 m
b11010 |
b11010000000000000000000000000000 M
0\
b0 W
b0 [
b0 c
b0 &"
b10110 Z
b10110000000000010000000000000010 X
#460
0$
#465
1#
#467
b11 <
b11 ""
b111100 :
b111100 d
b10 ;
b10 b
b10 #"
b111100 >
b111100 `
b10 9
b10 f
b10 $"
b10 =
b10 a
b1 8
b1 g
b1 %"
b100000000000 7
b100000000000 @
b10000010000110000000000000001 6
b10000010000110000000000000001 u
b100 x
b11010 F
b11010000000000000000000000000000 E
b11000100001000000100000000000 V
b11 3
b11 y
#470
0#
#475
1$
#477
1(
b1111000 B
b1111000 t
b111100 L
b10 *
b10 v
b10 K
b10 l
b111110 q
b111010 o
b111100 J
b111100 k
1A
b0 C
b0 s
b11010 Z
b11010000000000000000000000000000 X
b111100 S
b10 P
b111100 O
b1 U
b1 !"
b10 T
b10 ~
b10 R
b10 }
b11 Q
b11 m
b11 |
b11000100001000000100000000000 M
#480
0$
#485
1#
#487
1A
b11110000 B
b11110000 t
b10110000000000010000000000000010 6
b10110000000000010000000000000010 u
b101 x
b10 <
b10 ""
b10 :
b10 d
b1 ;
b1 b
b1 #"
b10 >
b10 `
b1 9
b1 f
b1 $"
1?
b0 =
b0 a
b0 8
b0 g
b0 %"
b1 7
b1 @
b1111010 q
b1110110 o
b1111000 J
b1111000 k
b1111000 L
b10 .
b10 *"
b10 0
b10 ("
b100 3
b100 y
b10000010000110000000000000001 V
1I
b111100 H
b111100 -"
b1111000 D
b1111000 +"
b10 G
b10 {
b11 F
b11000100001000000100000000000 E
#490
0#
#495
1$
#497
1(
b10 L
b10 J
b10 k
b11 q
b1 o
b1 *
b1 v
b1 K
b1 l
1A
b1 B
b1 t
b0 .
b0 *"
b0 0
b0 ("
b1111000 _
b1111000 e
b10 S
b1 P
b10 O
1N
b0 U
b0 !"
b1 T
b1 ~
b1 R
b1 }
b10 Q
b10 m
b10 |
b10000010000110000000000000001 M
1\
b1111000 W
b10 [
b10 c
b10 &"
b11 Z
b11000100001000000100000000000 X
#500
0$
#505
1#
#507
b10 C
b10 s
1A
b0 B
b0 t
b10 q
b0 o
b1 J
b1 k
b1 L
b10 .
b10 *"
b10 0
b10 ("
b10110 <
b10110 ""
b0 :
b0 d
b0 ;
b0 b
b0 #"
b0 >
b0 `
b0 9
b0 f
b0 $"
b10 7
b10 @
b1100000100000010000000000001111 6
b1100000100000010000000000001111 u
b110 x
b10 H
b10 -"
b1 D
b1 +"
b1 G
b1 {
b10 F
b10000010000110000000000000001 E
b10110000000000010000000000000010 V
b101 3
b101 y
#510
0#
#515
1$
#517
0(
b10 x
12
b1 _
b1 e
b0 L
b10 *
b10 v
b10 K
b10 l
b10 q
b111111111111111111111111111111110 o
1p
b0 J
b0 k
b0 .
b0 *"
b0 0
b0 ("
0A
b0 C
b0 s
1)
b1 W
b1 [
b1 c
b1 &"
b10 Z
b10000010000110000000000000001 X
b0 S
b10 P
b0 O
b0 T
b0 ~
b0 R
b0 }
b10110 Q
b10110 m
b10110 |
b10110000000000010000000000000010 M
#520
0$
#525
1#
#527
b11000100001000000100000000000 6
b11000100001000000100000000000 u
b11010 <
b11010 ""
0?
b0 7
b0 @
b10 3
b10 y
b11010000000000000000000000000000 V
0I
b0 H
b0 -"
b0 D
b0 +"
b0 G
b0 {
b10110 F
b10110000000000010000000000000010 E
#530
0#
#535
1$
#537
b11 x
02
b0 q
b0 o
0p
b0 *
b0 v
b0 K
b0 l
0)
b0 _
b0 e
b0 P
0N
b11010 Q
b11010 m
b11010 |
b11010000000000000000000000000000 M
0\
b0 W
b0 [
b0 c
b0 &"
b10110 Z
b10110000000000010000000000000010 X
#540
0$
#545
1#
#547
b11 <
b11 ""
b1111000 :
b1111000 d
b10 ;
b10 b
b10 #"
b1111000 >
b1111000 `
b10 9
b10 f
b10 $"
b1 =
b1 a
b1 8
b1 g
b1 %"
b100000000000 7
b100000000000 @
b10000010000110000000000000001 6
b10000010000110000000000000001 u
b100 x
b11010 F
b11010000000000000000000000000000 E
b11000100001000000100000000000 V
b11 3
b11 y
#550
0#
#555
1$
#557
1(
b1111000 B
b1111000 t
b1111000 L
b1 *
b1 v
b1 K
b1 l
b1111001 q
b1110111 o
b1111000 J
b1111000 k
1A
b0 C
b0 s
b11010 Z
b11010000000000000000000000000000 X
b1111000 S
b1 P
b1111000 O
b1 U
b1 !"
b10 T
b10 ~
b10 R
b10 }
b11 Q
b11 m
b11 |
b11000100001000000100000000000 M
#560
0$
#565
1#
#567
b10110000000000010000000000000010 6
b10110000000000010000000000000010 u
b101 x
b10 <
b10 ""
b1 :
b1 d
b1 ;
b1 b
b1 #"
b1 >
b1 `
b1 9
b1 f
b1 $"
1?
b0 =
b0 a
b0 8
b0 g
b0 %"
b1 7
b1 @
b10 .
b10 *"
b10 0
b10 ("
b100 3
b100 y
b10000010000110000000000000001 V
1I
b1111000 H
b1111000 -"
b1111000 D
b1111000 +"
b10 G
b10 {
b11 F
b11000100001000000100000000000 E
#570
0#
#575
1$
#577
1(
b10 C
b10 s
b1 L
b10 q
b0 o
b1 J
b1 k
1A
b0 B
b0 t
b0 .
b0 *"
b0 0
b0 ("
b1111000 _
b1111000 e
b1 S
b1 O
1N
b0 U
b0 !"
b1 T
b1 ~
b1 R
b1 }
b10 Q
b10 m
b10 |
b10000010000110000000000000001 M
1\
b1111000 W
b10 [
b10 c
b10 &"
b11 Z
b11000100001000000100000000000 X
#580
0$
#585
1#
#587
b11111111111111111111111111111111 B
b11111111111111111111111111111111 t
1A
b1100 C
b1100 s
b1 q
b111111111111111111111111111111111 o
1p
b0 J
b0 k
b0 L
b10 .
b10 *"
b10 0
b10 ("
b10110 <
b10110 ""
b0 :
b0 d
b0 ;
b0 b
b0 #"
b0 >
b0 `
b0 9
b0 f
b0 $"
b10 7
b10 @
b1100000100000010000000000001111 6
b1100000100000010000000000001111 u
b110 x
b10 ^
b10 j
b1 H
b1 -"
b0 D
b0 +"
b1 G
b1 {
b10 F
b10000010000110000000000000001 E
b10110000000000010000000000000010 V
b101 3
b101 y
#590
0#
#595
1$
#597
0(
b0 _
b0 e
b10 q
b111111111111111111111111111111110 o
b10 *
b10 v
b10 K
b10 l
b0 .
b0 *"
b0 0
b0 ("
0A
b0 C
b0 s
b0 B
b0 t
b0 W
b1 [
b1 c
b1 &"
b10 Z
b10000010000110000000000000001 X
b0 S
b10 P
b0 O
b0 T
b0 ~
b0 R
b0 }
b10110 Q
b10110 m
b10110 |
b10110000000000010000000000000010 M
#600
0$
#605
1#
